"VertexLitGeneric"
{
	$basetexture "models/tfa_csgo/smoke/smoke_grenade"
	$bumpmap "null-bumpmap"
	
	"$basemapalphaphongmask" "1"
	"$phong" "1"
	"$phongfresnelranges" "[.83 .83 1]"
	"$phongboost" ".5"
	"$phongalbedoboost" "65"
	"$phongalbedotint" "1"

	"$phongexponenttexture" "models/tfa_csgo/smoke/smoke_grenade_exponent"

	"$phongdisablehalflambert" "1"

	"$envmap" "env_cubemap"
	"$envmapfresnel" "1"
	"$envmaptint" 		"[.3 .3 .4]"

}