VertexlitGeneric
{
	$basetexture	"models\tfa_csgo\uid\uid_charset"
	$alphatest 1
	$AlphaTestReference .44
	Proxies
	{
		WeaponLabelText
		{
			displayDigit		15
		}
		StatTrakIllum
		{
			resultVar	$color
			minVal		0.75
			maxVal		1.5
		}
	}
}