VertexLitGeneric
{
	"$baseTexture" "models\tfa_csgo\taser\taser"

	"$phong" "1"
	"$phongboost" ".8"
	"$phongfresnelranges" "[.3 .3 1]"

	"$phongexponent" 17
//	"$phongexponenttexture" "models\tfa_csgo\taser\taser_exponent"

	"$basemapalphaphongmask" "1"
	

	"$envmap" "env_cubemap"
	"$envmapfresnel" "1"
	"$envmapFresnelMinMaxExp" "[0 5 .4]"
	"$envmaptint" 		"[.01 .01 .01]"

//	"$phongalbedotint" "1"
	"$phongdisablehalflambert" "1"
}
