"VertexLitGeneric"
{
    "$phongdisablehalflambert" "1"
	"$baseTexture" "models/tfa_csgo/shared/scope"
	"$bumpMap" "models//tfa_csgo/shared/scope_normal"
	"$phong" "1"
	"$phongBoost" "1"
	"$phongExponent" "200"
	"$phongTint" "[ .8 1 .9 ]"
	"$phongFresnelRanges" "[.2 .2 1]"	
	"$envmap" "env_cubemap"
	"$envmapfresnel" "1"
	"$envmaptint" 		"[ .16 .2 .16 ]"
}
